examples/msstl.vcd
$timescale
  1ps
$end
$scope module Test $end
  $var wire 1 A trigger $end
$scope module foo $end
  $var wire 4 B a[3:0] $end
  $var wire 3 C b[2:0] $end
  $var wire 4 D c[3:0] $end
  $var wire 3 E d[2:0] $end
$upscope $end
$scope module bar $end
  $var wire 1 H X_2 $end
  $var wire 1 G X_1 $end
  $var wire 1 F X_0 $end
$upscope $end
$upscope $end
$enddefinitions $end
#2013093733280273
b0 A
b0 B
b1 C
b0 D
b0 E
#2013093733982096
bu B
bu C
bu D
bu E
#2013105018166667
b0 B
b1 C
b0 D
b0 E
#2013105110435760
b1 B
#2013105200166992
b1 B
b1 C
b0 D
b0 E
#2013125652318256
b10 B
b1 C
#2013125652322266
b0 D
b0 E
#2013125662871716
b0 C
#2013125834269206
b10 B
b0 C
b0 D
b0 E
#2013127978615457
b111 B
b0 C
#2013127978619466
b0 D
b0 E
#2013128160680339
b111 B
b0 C
b0 D
b0 E
#2013131078587788
b0 B
b0 C
#2013131078591797
b0 D
b0 E
#2013131079086426
b1 C
#2013131079910807
bu B
bu C
bu D
bu E
#2013149809583333
b0 B
b1 C
#2013149901863226
b1 B
#2013149991633138
b1 B
b1 C
b0 D
b0 E
#2013174867729064
b0 B
b1 C
#2013174867733073
b0 D
b0 E
#2013174869055664
bu B
bu C
bu D
bu E
#2013193561875000
b0 B
b1 C
#2013193654143527
b1 B
#2013193743930339
b1 B
b1 C
b0 D
b0 E
#2013242675915587
b0 B
b1 C
#2013242675919596
b0 D
b0 E
#2013242677238932
bu B
bu C
bu D
bu E
#2013261273936198
b0 B
b1 C
#2013261366208588
b1 B
#2013261456019206
b1 B
b1 C
b0 D
b0 E
#2013310387984923
b0 B
b1 C
#2013310387988932
b0 D
b0 E
#2013310389310872
bu B
bu C
bu D
bu E
#2013328979299805
b0 B
b1 C
#2013329071577103
b1 B
#2013329161244141
b1 B
b1 C
b0 D
b0 E
#2013349620740131
b10 B
b1 C
#2013349620744141
b0 D
b0 E
#2013349630908250
b0 C
#2013349633410185
b100 B
#2013349802691732
b100 B
b0 C
#2013349802707769
b0 D
b0 E
#2013351169348855
b111 B
b0 C
#2013351169352865
b0 D
b0 E
#2013351172992964
b100 B
#2013351351341797
b100 B
b0 C
b0 D
b0 E
#2013351710609598
b111 B
b0 C
#2013351710613607
b0 D
b0 E
#2013351715400404
b100 B
#2013351892644206
b100 B
b0 C
b0 D
b0 E
#2013352091337788
b111 B
b0 C
#2013352091341797
b0 D
b0 E
#2013352099560651
b100 B
#2013352124016756
b111 B
#2013352130347278
b100 B
#2013352273347331
b100 B
b0 C
b0 D
b0 E
#2013352334979064
b111 B
b0 C
#2013352334983073
b0 D
b0 E
#2013352338174611
b100 B
#2013352516988932
b100 B
b0 C
b0 D
b0 E
#2013352572457254
b111 B
b0 C
#2013352572461263
b0 D
b0 E
#2013352579914220
b100 B
#2013352754483398
b100 B
b0 C
b0 D
b0 E
#2013354507104389
b111 B
b0 C
#2013354507108398
b0 D
b0 E
#2013354515131184
b100 B
#2013354689102539
b100 B
b0 C
b0 D
b0 E
#2013355130276264
b111 B
b0 C
#2013355130280273
b0 D
b0 E
#2013355138294917
b100 B
#2013355312291667
b100 B
b0 C
b0 D
b0 E
#2013356742307189
b111 B
b0 C
#2013356742311198
b0 D
b0 E
#2013356755781470
b100 B
#2013356902523243
b111 B
#2013356915227794
b100 B
#2013356924336263
b100 B
b0 C
b0 D
b0 E
#2013357333662657
b111 B
b0 C
#2013357333666667
b0 D
b0 E
#2013357347507553
b100 B
#2013357515675130
b100 B
b0 C
b0 D
b0 E
#2013357714412657
b111 B
b0 C
#2013357714416667
b0 D
b0 E
#2013357729095985
b100 B
#2013357896458659
b100 B
b0 C
b0 D
b0 E
#2013358506412657
b111 B
b0 C
#2013358506416667
b0 D
b0 E
#2013358515477599
b100 B
#2013358688425130
b100 B
b0 C
b0 D
b0 E
#2013359699021056
b111 B
b0 C
#2013359699025065
b0 D
b0 E
#2013359881049805
b111 B
b0 C
b0 D
b0 E
#2013384289218321
b10 B
b0 C
#2013384289222331
b0 D
b0 E
#2013384471310872
b10 B
b0 C
b0 D
b0 E
#2013409165598855
b0 B
b0 C
#2013409165602865
b0 D
b0 E
#2013409166089895
b1 C
#2013409166924805
bu B
bu C
bu D
bu E
#2013436275833333
b0 B
b1 C
#2013436368105752
b1 B
#2013436457791992
b1 B
b1 C
b0 D
b0 E
#2013444484638243
b10 B
b1 C
#2013444484642253
b0 D
b0 E
#2013444496216090
b0 C
#2013444497899848
b100 B
#2013444666580404
b100 B
b0 C
#2013444666584413
b0 D
b0 E
#2013444994556863
b111 B
b0 C
#2013444994560872
b0 D
b0 E
#2013445010291596
b100 B
#2013445176570638
b100 B
b0 C
b0 D
b0 E
#2013445605829650
b111 B
b0 C
#2013445605833659
b0 D
b0 E
#2013445619288125
b100 B
#2013445787841797
b100 B
b0 C
b0 D
b0 E
#2013446507921121
b111 B
b0 C
#2013446507925130
b0 D
b0 E
#2013446515575275
b100 B
#2013446668445860
b111 B
#2013446675306131
b100 B
#2013446689924805
b100 B
b0 C
b0 D
b0 E
#2013446949098530
b111 B
b0 C
#2013446949102539
b0 D
b0 E
#2013446963859404
b100 B
#2013447131127930
b100 B
b0 C
b0 D
b0 E
#2013447502657124
b111 B
b0 C
#2013447502661133
b0 D
b0 E
#2013447506177517
b100 B
#2013447684675130
b100 B
b0 C
b0 D
b0 E
#2013448693134988
b111 B
b0 C
#2013448693138997
b0 D
b0 E
#2013448707389827
b100 B
#2013448875183919
b100 B
b0 C
b0 D
b0 E
#2013449976123920
b111 B
b0 C
#2013449976127930
b0 D
b0 E
#2013449987402741
b100 B
#2013450158160807
b100 B
b0 C
b0 D
b0 E
#2013450527415587
b111 B
b0 C
#2013450527419596
b0 D
b0 E
#2013450532106173
b100 B
#2013450709430339
b100 B
b0 C
b0 D
b0 E
#2013451008537657
b111 B
b0 C
#2013451008541667
b0 D
b0 E
#2013451012201862
b100 B
#2013451050359294
b111 B
#2013451058228914
b100 B
#2013451190561198
b100 B
b0 C
b0 D
b0 E
#2013451439379454
b111 B
b0 C
#2013451439383464
b0 D
b0 E
#2013451443369138
b100 B
#2013451621405273
b100 B
b0 C
b0 D
b0 E
#2013451712895730
b111 B
b0 C
#2013451712899740
b0 D
b0 E
#2013451714868180
b100 B
#2013451894930339
b100 B
b0 C
b0 D
b0 E
#2013452652348855
b111 B
b0 C
#2013452652352865
b0 D
b0 E
#2013452659333328
b100 B
#2013452834394206
b100 B
b0 C
b0 D
b0 E
#2013453624600483
b111 B
b0 C
#2013453624604492
b0 D
b0 E
#2013453635253602
b100 B
#2013453806649740
b100 B
b0 C
b0 D
b0 E
#2013455218306863
b111 B
b0 C
#2013455218310872
b0 D
b0 E
#2013455221859302
b100 B
#2013455378547542
b111 B
#2013455400347331
b111 B
b0 C
b0 D
b0 E
#2013455412837788
b100 B
b0 C
#2013455412841797
b0 D
b0 E
#2013455594858398
b100 B
b0 C
b0 D
b0 E
#2013456250567931
b111 B
b0 C
#2013456250571940
b0 D
b0 E
#2013456259749121
b100 B
#2013456282533707
b111 B
#2013456290476037
b100 B
#2013456432608073
b100 B
b0 C
b0 D
b0 E
#2013456721807189
b111 B
b0 C
#2013456721811198
b0 D
b0 E
#2013456725403926
b100 B
#2013456903869466
b100 B
b0 C
b0 D
b0 E
#2013458355462788
b111 B
b0 C
#2013458355466797
b0 D
b0 E
#2013458369978019
b100 B
#2013458535896743
b111 B
#2013458537488607
b111 B
b0 C
b0 D
b0 E
#2013458547157124
b100 B
b0 C
#2013458547161133
b0 D
b0 E
#2013458729169596
b100 B
b0 C
b0 D
b0 E
#2013460500587462
b111 B
b0 C
#2013460500591471
b0 D
b0 E
#2013460515515394
b100 B
#2013460682613607
b100 B
b0 C
b0 D
b0 E
#2013461232295795
b111 B
b0 C
#2013461232299805
b0 D
b0 E
#2013461235896425
b100 B
#2013461414291992
b100 B
b0 C
b0 D
b0 E
#2013463056537657
b111 B
b0 C
#2013463056541667
b0 D
b0 E
#2013463060174431
b100 B
#2013463238524740
b100 B
b0 C
b0 D
b0 E
#2013463246986551
b111 B
b0 C
#2013463246990560
b0 D
b0 E
#2013463251617526
b100 B
#2013463428977865
b100 B
b0 C
b0 D
b0 E
#2013463808296121
b111 B
b0 C
#2013463808300130
b0 D
b0 E
#2013463811547447
b100 B
#2013463990322266
b100 B
b0 C
b0 D
b0 E
#2013464522092996
b111 B
b0 C
#2013464522097005
b0 D
b0 E
#2013464530260024
b100 B
#2013464704133138
b100 B
b0 C
b0 D
b0 E
#2013465281723855
b111 B
b0 C
#2013465281727865
b0 D
b0 E
#2013465285363997
b100 B
#2013465463738932
b100 B
b0 C
b0 D
b0 E
#2013465913176655
b111 B
b0 C
#2013465913180664
b0 D
b0 E
#2013465923100222
b100 B
#2013466095196940
b100 B
b0 C
b0 D
b0 E
#2013466664937723
b111 B
b0 C
#2013466664941732
b0 D
b0 E
#2013466675405931
b100 B
#2013466846958659
b100 B
b0 C
b0 D
b0 E
#2013467025759988
b111 B
b0 C
#2013467025763997
b0 D
b0 E
#2013467029380703
b100 B
#2013467207786133
b100 B
b0 C
b0 D
b0 E
#2013467396640522
b111 B
b0 C
#2013467396644531
b0 D
b0 E
#2013467411461830
b100 B
#2013467578669596
b100 B
b0 C
b0 D
b0 E
#2013467837657124
b111 B
b0 C
#2013467837661133
b0 D
b0 E
#2013467843274060
b100 B
#2013468019680339
b100 B
b0 C
b0 D
b0 E
#2013468378912657
b111 B
b0 C
#2013468378916667
b0 D
b0 E
#2013468387805333
b100 B
#2013468560935872
b100 B
b0 C
b0 D
b0 E
#2013468579240457
b111 B
b0 C
#2013468579244466
b0 D
b0 E
#2013468761274740
b111 B
b0 C
b0 D
b0 E
#2013493168765522
b10 B
b0 C
#2013493168769531
b0 D
b0 E
#2013493350686198
b10 B
b0 C
b0 D
b0 E
#2013517464443256
b0 B
b0 C
#2013517464447266
b0 D
b0 E
#2013517464944458
b1 C
#2013517465773112
bu B
bu C
bu D
bu E
#2013544619750000
b0 B
b1 C
#2013544712015416
b1 B
#2013544801674805
b1 B
b1 C
b0 D
b0 E
#2013553364504129
b10 B
b1 C
#2013553364508138
b0 D
b0 E
#2013553370053306
b0 C
#2013553546400065
b10 B
b0 C
#2013553546404074
b0 D
b0 E
#2013555427782124
b100 B
b0 C
#2013555427786133
b0 D
b0 E
#2013555427842259
b111 B
#2013555609799805
b111 B
b0 C
b0 D
b0 E
#2013579608171121
b10 B
b0 C
#2013579608175130
b0 D
b0 E
#2013579790222331
b10 B
b0 C
b0 D
b0 E
#2013604759384663
b0 B
b0 C
#2013604759388672
b0 D
b0 E
#2013604759884611
b1 C
#2013604760702474
bu B
bu C
bu D
bu E
#2013631084246419
b0 B
b1 C
#2013631176520435
b1 B
#2013631266216471
b1 B
b1 C
b0 D
b0 E
#2013638164656798
b10 B
b1 C
#2013638164660807
b0 D
b0 E
#2013638176120363
b0 C
#2013638177980837
b100 B
#2013638346586263
b100 B
b0 C
#2013638346590272
b0 D
b0 E
#2013639031182189
b111 B
b0 C
#2013639031186198
b0 D
b0 E
#2013639043206910
b100 B
#2013639213196940
b100 B
b0 C
b0 D
b0 E
#2013639672676329
b111 B
b0 C
#2013639672680339
b0 D
b0 E
#2013639683898681
b100 B
#2013639813001837
b111 B
#2013639827672286
b100 B
#2013639854691732
b100 B
b0 C
b0 D
b0 E
#2013640354276264
b111 B
b0 C
#2013640354280273
b0 D
b0 E
#2013640357812149
b100 B
#2013640536286133
b100 B
b0 C
b0 D
b0 E
#2013640685037983
b111 B
b0 C
#2013640685041992
b0 D
b0 E
#2013640691120409
b100 B
#2013640867041667
b100 B
b0 C
b0 D
b0 E
#2013640995770730
b111 B
b0 C
#2013640995774740
b0 D
b0 E
#2013641010331376
b100 B
#2013641177810872
b100 B
b0 C
b0 D
b0 E
#2013641316509663
b111 B
b0 C
#2013641316513672
b0 D
b0 E
#2013641331487081
b100 B
#2013641498535807
b100 B
b0 C
b0 D
b0 E
#2013643100645730
b111 B
b0 C
#2013643100649740
b0 D
b0 E
#2013643107589602
b100 B
#2013643282649740
b100 B
b0 C
b0 D
b0 E
#2013644183162657
b111 B
b0 C
#2013644183166667
b0 D
b0 E
#2013644195155131
b100 B
#2013644365174805
b100 B
b0 C
b0 D
b0 E
#2013644834687397
b111 B
b0 C
#2013644834691406
b0 D
b0 E
#2013645016697266
b111 B
b0 C
b0 D
b0 E
#2013669424698465
b10 B
b0 C
#2013669424702474
b0 D
b0 E
#2013669606758138
b10 B
b0 C
b0 D
b0 E
#2013694230937723
b0 B
b0 C
#2013694230941732
b0 D
b0 E
#2013694231437459
b1 C
#2013694232263672
bu B
bu C
bu D
bu E
#2013720682155273
b0 B
b1 C
#2013720774422535
b1 B
#2013720864127930
b1 B
b1 C
b0 D
b0 E
#2013729621151590
b10 B
b1 C
#2013729621155599
b0 D
b0 E
#2013729632470633
b0 C
#2013729803086263
b10 B
b0 C
#2013729803090272
b0 D
b0 E
#2013732616962462
b111 B
b0 C
#2013732616966471
b0 D
b0 E
#2013732798972331
b111 B
b0 C
b0 D
b0 E
#2013735716932189
b0 B
b0 C
#2013735716936198
b0 D
b0 E
#2013735717423229
b1 C
#2013735718258138
bu B
bu C
bu D
bu E
#2013754019169596
b0 B
b1 C
#2013754111431195
b1 B
#2013754201211263
b1 B
b1 C
b0 D
b0 E
#2013779077318256
b0 B
b1 C
#2013779077322266
b0 D
b0 E
#2013779078644206
bu B
bu C
bu D
bu E
#2013797769769531
b0 B
b1 C
#2013797862038656
b1 B
#2013797951894206
b1 B
b1 C
b0 D
b0 E
#2013846883814025
b0 B
b1 C
#2013846883818034
b0 D
b0 E
#2013846885138997
bu B
bu C
#2013846885144206
bu D
bu E
#2013865478716471
b0 B
b1 C
#2013865570975259
b1 B
#2013865660744466
b1 B
b1 C
b0 D
b0 E
#2013914592759663
b0 B
b1 C
#2013914592763672
b0 D
b0 E
#2013914594083659
bu B
bu C
bu D
bu E
#2013933183577799
b0 B
b1 C
#2013933275841265
b1 B
#2013933365619141
b1 B
b1 C
b0 D
b0 E
#2014002344271056
b0 B
b1 C
#2014002344275065
b0 D
b0 E
#2014002345597331
bu B
bu C
bu D
bu E
#2014020683127930
b0 B
b1 C
#2014020775397119
b1 B
#2014020865108398
b1 B
b1 C
b0 D
b0 E
#2014049653454650
b10 B
b1 C
#2014049653458659
b0 D
b0 E
#2014049662656840
b0 C
#2014049835513672
b10 B
b0 C
#2014050199692895
b0 D
b0 E
#2014052664509663
b111 B
b0 C
#2014052664513672
b0 D
b0 E
#2014052846488932
b111 B
b0 C
b0 D
b0 E
#2014055764479064
b0 B
b0 C
#2014055764483073
b0 D
b0 E
#2014055764971397
b1 C
#2014055765799805
bu B
bu C
bu D
bu E
#2014073811483073
b0 B
b1 C
#2014073903760797
b1 B
#2014073993660807
b1 B
b1 C
b0 D
b0 E
#2014098869629454
b0 B
b1 C
#2014098869633464
b0 D
b0 E
#2014098870952799
bu B
bu C
bu D
bu E
#2014117563336263
b0 B
b1 C
#2014117655602923
b1 B
#2014117745472005
b1 B
b1 C
b0 D
b0 E
#2014166677373920
b0 B
b1 C
#2014166677377930
b0 D
b0 E
#2014166678691732
bu B
bu C
bu D
bu E
#2014185281644206
b0 B
b1 C
#2014185373907189
b1 B
#2014185463708333
b1 B
b1 C
b0 D
b0 E
#2014234395687723
b0 B
b1 C
#2014234395691732
b0 D
b0 E
#2014234397019206
bu B
bu C
bu D
bu E
#2014252991650065
b0 B
b1 C
#2014253083911690
b1 B
#2014253173727865
b1 B
b1 C
b0 D
b0 E
#2014322152342996
b0 B
b1 C
#2014322152347005
b0 D
b0 E
#2014322153660807
bu B
bu C
bu D
bu E
#2014340489500326
b0 B
b1 C
#2014340581768688
b1 B
#2014340671555339
b1 B
b1 C
b0 D
b0 E
#2014369461573465
b10 B
b1 C
#2014369461577474
b0 D
b0 E
#2014369473277566
b0 C
#2014369643666667
b10 B
b0 C
#2014370007962082
b0 D
b0 E
#2014372470870991
b111 B
b0 C
#2014372470875000
b0 D
b0 E
#2014372652916992
b111 B
b0 C
b0 D
b0 E
#2014375570842996
b0 B
b0 C
#2014375570847005
b0 D
b0 E
#2014375571336537
b1 C
#2014375572166992
bu B
bu C
bu D
bu E
#2014393621966797
b0 B
b1 C
#2014393714242418
b1 B
#2014393804036133
b1 B
b1 C
b0 D
b0 E
#2014418680115131
b0 B
b1 C
#2014418680119141
b0 D
b0 E
#2014418681441732
bu B
bu C
bu D
bu E
#2014437371708333
b0 B
b1 C
#2014437463974507
b1 B
#2014437553775065
b1 B
b1 C
b0 D
b0 E
#2014486485754129
b0 B
b1 C
#2014486485758138
b0 D
b0 E
#2014486487072266
bu B
bu C
#2014486487077474
bu D
bu E
#2014505085250326
b0 B
b1 C
#2014505177515988
b1 B
#2014505267291992
b1 B
b1 C
b0 D
b0 E
#2014554199287657
b0 B
b1 C
#2014554199291667
b0 D
b0 E
#2014554200608398
bu B
bu C
bu D
bu E
#2014572793327474
b0 B
b1 C
#2014572885596331
b1 B
#2014572975383464
b1 B
b1 C
b0 D
b0 E
#2014593428509663
b10 B
b1 C
#2013093733280273
b0 F
b0 G
b0 H
#2013105200166992
b0 F
b0 G
b0 H
#2013125652318256
b0 F
b0 G
b0 H
#2013125834269206
b0 F
b0 G
b0 H
#2013127978615457
b0 F
b0 G
b0 H
#2013128160680339
b0 F
b0 G
b0 H
#2013131078587788
b0 F
b0 G
b0 H
#2013149991633138
b0 F
b0 G
b0 H
#2013174867729064
b0 F
b0 G
b0 H
#2013193743930339
b0 F
b0 G
b0 H
#2013242675915587
b0 F
b0 G
b0 H
#2013261456019206
b0 F
b0 G
b0 H
#2013310387984923
b0 F
b0 G
b0 H
#2013329161244141
b0 F
b0 G
b0 H
#2013349620740131
b0 F
b0 G
b0 H
#2013349633410185
b1 F
#2013349802691732
b1 F
b0 G
b0 H
#2013351169348855
b0 F
b0 G
b0 H
#2013351172992964
b1 F
#2013351351341797
b1 F
b0 G
b0 H
#2013351710609598
b0 F
b0 G
b0 H
#2013351715400404
b1 F
#2013351892644206
b1 F
b0 G
b0 H
#2013352091337788
b0 F
b0 G
b0 H
#2013352099560651
b1 F
#2013352124016756
b0 F
#2013352130347278
b1 F
#2013352273347331
b1 F
b0 G
b0 H
#2013352334979064
b0 F
b0 G
b0 H
#2013352338174611
b1 F
#2013352516988932
b1 F
b0 G
b0 H
#2013352572457254
b0 F
b0 G
b0 H
#2013352579914220
b1 F
#2013352754483398
b1 F
b0 G
b0 H
#2013354507104389
b0 F
b0 G
b0 H
#2013354515131184
b1 F
#2013354689102539
b1 F
b0 G
b0 H
#2013355130276264
b0 F
b0 G
b0 H
#2013355138294917
b1 F
#2013355312291667
b1 F
b0 G
b0 H
#2013356742307189
b0 F
b0 G
b0 H
#2013356755781470
b1 F
#2013356902523243
b0 F
#2013356915227794
b1 F
#2013356924336263
b1 F
b0 G
b0 H
#2013357333662657
b0 F
b0 G
b0 H
#2013357347507553
b1 F
#2013357515675130
b1 F
b0 G
b0 H
#2013357714412657
b0 F
b0 G
b0 H
#2013357729095985
b1 F
#2013357896458659
b1 F
b0 G
b0 H
#2013358506412657
b0 F
b0 G
b0 H
#2013358515477599
b1 F
#2013358688425130
b1 F
b0 G
b0 H
#2013359699021056
b0 F
b0 G
b0 H
#2013359881049805
b0 F
b0 G
b0 H
#2013384289218321
b0 F
b0 G
b0 H
#2013384471310872
b0 F
b0 G
b0 H
#2013409165598855
b0 F
b0 G
b0 H
#2013436457791992
b0 F
b0 G
b0 H
#2013444484638243
b0 F
b0 G
b0 H
#2013444497899848
b1 F
#2013444666580404
b1 F
b0 G
b0 H
#2013444994556863
b0 F
b0 G
b0 H
#2013445010291596
b1 F
#2013445176570638
b1 F
b0 G
b0 H
#2013445605829650
b0 F
b0 G
b0 H
#2013445619288125
b1 F
#2013445787841797
b1 F
b0 G
b0 H
#2013446507921121
b0 F
b0 G
b0 H
#2013446515575275
b1 F
#2013446668445860
b0 F
#2013446675306131
b1 F
#2013446689924805
b1 F
b0 G
b0 H
#2013446949098530
b0 F
b0 G
b0 H
#2013446963859404
b1 F
#2013447131127930
b1 F
b0 G
b0 H
#2013447502657124
b0 F
b0 G
b0 H
#2013447506177517
b1 F
#2013447684675130
b1 F
b0 G
b0 H
#2013448693134988
b0 F
b0 G
b0 H
#2013448707389827
b1 F
#2013448875183919
b1 F
b0 G
b0 H
#2013449976123920
b0 F
b0 G
b0 H
#2013449987402741
b1 F
#2013450158160807
b1 F
b0 G
b0 H
#2013450527415587
b0 F
b0 G
b0 H
#2013450532106173
b1 F
#2013450709430339
b1 F
b0 G
b0 H
#2013451008537657
b0 F
b0 G
b0 H
#2013451012201862
b1 F
#2013451050359294
b0 F
#2013451058228914
b1 F
#2013451190561198
b1 F
b0 G
b0 H
#2013451439379454
b0 F
b0 G
b0 H
#2013451443369138
b1 F
#2013451621405273
b1 F
b0 G
b0 H
#2013451712895730
b0 F
b0 G
b0 H
#2013451714868180
b1 F
#2013451894930339
b1 F
b0 G
b0 H
#2013452652348855
b0 F
b0 G
b0 H
#2013452659333328
b1 F
#2013452834394206
b1 F
b0 G
b0 H
#2013453624600483
b0 F
b0 G
b0 H
#2013453635253602
b1 F
#2013453806649740
b1 F
b0 G
b0 H
#2013455218306863
b0 F
b0 G
b0 H
#2013455221859302
b1 F
#2013455378547542
b0 F
#2013455400347331
b0 F
b0 G
b0 H
#2013455412837788
b1 F
b0 G
b0 H
#2013455594858398
b1 F
b0 G
b0 H
#2013456250567931
b0 F
b0 G
b0 H
#2013456259749121
b1 F
#2013456282533707
b0 F
#2013456290476037
b1 F
#2013456432608073
b1 F
b0 G
b0 H
#2013456721807189
b0 F
b0 G
b0 H
#2013456725403926
b1 F
#2013456903869466
b1 F
b0 G
b0 H
#2013458355462788
b0 F
b0 G
b0 H
#2013458369978019
b1 F
#2013458535896743
b0 F
#2013458537488607
b0 F
b0 G
b0 H
#2013458547157124
b1 F
b0 G
b0 H
#2013458729169596
b1 F
b0 G
b0 H
#2013460500587462
b0 F
b0 G
b0 H
#2013460515515394
b1 F
#2013460682613607
b1 F
b0 G
b0 H
#2013461232295795
b0 F
b0 G
b0 H
#2013461235896425
b1 F
#2013461414291992
b1 F
b0 G
b0 H
#2013463056537657
b0 F
b0 G
b0 H
#2013463060174431
b1 F
#2013463238524740
b1 F
b0 G
b0 H
#2013463246986551
b0 F
b0 G
b0 H
#2013463251617526
b1 F
#2013463428977865
b1 F
b0 G
b0 H
#2013463808296121
b0 F
b0 G
b0 H
#2013463811547447
b1 F
#2013463990322266
b1 F
b0 G
b0 H
#2013464522092996
b0 F
b0 G
b0 H
#2013464530260024
b1 F
#2013464704133138
b1 F
b0 G
b0 H
#2013465281723855
b0 F
b0 G
b0 H
#2013465285363997
b1 F
#2013465463738932
b1 F
b0 G
b0 H
#2013465913176655
b0 F
b0 G
b0 H
#2013465923100222
b1 F
#2013466095196940
b1 F
b0 G
b0 H
#2013466664937723
b0 F
b0 G
b0 H
#2013466675405931
b1 F
#2013466846958659
b1 F
b0 G
b0 H
#2013467025759988
b0 F
b0 G
b0 H
#2013467029380703
b1 F
#2013467207786133
b1 F
b0 G
b0 H
#2013467396640522
b0 F
b0 G
b0 H
#2013467411461830
b1 F
#2013467578669596
b1 F
b0 G
b0 H
#2013467837657124
b0 F
b0 G
b0 H
#2013467843274060
b1 F
#2013468019680339
b1 F
b0 G
b0 H
#2013468378912657
b0 F
b0 G
b0 H
#2013468387805333
b1 F
#2013468560935872
b1 F
b0 G
b0 H
#2013468579240457
b0 F
b0 G
b0 H
#2013468761274740
b0 F
b0 G
b0 H
#2013493168765522
b0 F
b0 G
b0 H
#2013493350686198
b0 F
b0 G
b0 H
#2013517464443256
b0 F
b0 G
b0 H
#2013544801674805
b0 F
b0 G
b0 H
#2013553364504129
b0 F
b0 G
b0 H
#2013553546400065
b0 F
b0 G
b0 H
#2013555427782124
b1 F
b0 G
b0 H
#2013555427842259
b0 F
#2013555609799805
b0 F
b0 G
b0 H
#2013579608171121
b0 F
b0 G
b0 H
#2013579790222331
b0 F
b0 G
b0 H
#2013604759384663
b0 F
b0 G
b0 H
#2013631266216471
b0 F
b0 G
b0 H
#2013638164656798
b0 F
b0 G
b0 H
#2013638177980837
b1 F
#2013638346586263
b1 F
b0 G
b0 H
#2013639031182189
b0 F
b0 G
b0 H
#2013639043206910
b1 F
#2013639213196940
b1 F
b0 G
b0 H
#2013639672676329
b0 F
b0 G
b0 H
#2013639683898681
b1 F
#2013639813001837
b0 F
#2013639827672286
b1 F
#2013639854691732
b1 F
b0 G
b0 H
#2013640354276264
b0 F
b0 G
b0 H
#2013640357812149
b1 F
#2013640536286133
b1 F
b0 G
b0 H
#2013640685037983
b0 F
b0 G
b0 H
#2013640691120409
b1 F
#2013640867041667
b1 F
b0 G
b0 H
#2013640995770730
b0 F
b0 G
b0 H
#2013641010331376
b1 F
#2013641177810872
b1 F
b0 G
b0 H
#2013641316509663
b0 F
b0 G
b0 H
#2013641331487081
b1 F
#2013641498535807
b1 F
b0 G
b0 H
#2013643100645730
b0 F
b0 G
b0 H
#2013643107589602
b1 F
#2013643282649740
b1 F
b0 G
b0 H
#2013644183162657
b0 F
b0 G
b0 H
#2013644195155131
b1 F
#2013644365174805
b1 F
b0 G
b0 H
#2013644834687397
b0 F
b0 G
b0 H
#2013645016697266
b0 F
b0 G
b0 H
#2013669424698465
b0 F
b0 G
b0 H
#2013669606758138
b0 F
b0 G
b0 H
#2013694230937723
b0 F
b0 G
b0 H
#2013720864127930
b0 F
b0 G
b0 H
#2013729621151590
b0 F
b0 G
b0 H
#2013729803086263
b0 F
b0 G
b0 H
#2013732616962462
b0 F
b0 G
b0 H
#2013732798972331
b0 F
b0 G
b0 H
#2013735716932189
b0 F
b0 G
b0 H
#2013754201211263
b0 F
b0 G
b0 H
#2013779077318256
b0 F
b0 G
b0 H
#2013797951894206
b0 F
b0 G
b0 H
#2013846883814025
b0 F
b0 G
b0 H
#2013865660744466
b0 F
b0 G
b0 H
#2013914592759663
b0 F
b0 G
b0 H
#2013933365619141
b0 F
b0 G
b0 H
#2014002344271056
b0 F
b0 G
b0 H
#2014020865108398
b0 F
b0 G
b0 H
#2014049653454650
b0 F
b0 G
b0 H
#2014049835513672
b0 F
b0 G
b0 H
#2014052664509663
b0 F
b0 G
b0 H
#2014052846488932
b0 F
b0 G
b0 H
#2014055764479064
b0 F
b0 G
b0 H
#2014073993660807
b0 F
b0 G
b0 H
#2014098869629454
b0 F
b0 G
b0 H
#2014117745472005
b0 F
b0 G
b0 H
#2014166677373920
b0 F
b0 G
b0 H
#2014185463708333
b0 F
b0 G
b0 H
#2014234395687723
b0 F
b0 G
b0 H
#2014253173727865
b0 F
b0 G
b0 H
#2014322152342996
b0 F
b0 G
b0 H
#2014340671555339
b0 F
b0 G
b0 H
#2014369461573465
b0 F
b0 G
b0 H
#2014369643666667
b0 F
b0 G
b0 H
#2014372470870991
b0 F
b0 G
b0 H
#2014372652916992
b0 F
b0 G
b0 H
#2014375570842996
b0 F
b0 G
b0 H
#2014393804036133
b0 F
b0 G
b0 H
#2014418680115131
b0 F
b0 G
b0 H
#2014437553775065
b0 F
b0 G
b0 H
#2014486485754129
b0 F
b0 G
b0 H
#2014505267291992
b0 F
b0 G
b0 H
#2014554199287657
b0 F
b0 G
b0 H
#2014572975383464
b0 F
b0 G
b0 H
#2014593428509663
b0 F
b0 G
b0 H
#2014593428513672
b0 D
b0 E
#2014593437198449
b0 C
#2014593610561198
b10 B
b0 F
b0 C
b0 G
b0 H
#2014593974684247
b0 D
b0 E
#2014595846801329
b0 F
b0 B
b0 G
b0 C
b0 H
#2014595846805339
b0 D
b0 E
#2014595847299039
b1 C
#2014595848130534
bu B
bu C
bu D
bu E
#2014622792077474
b0 B
b1 C
#2014622884342528
b1 B
#2014622974113932
b1 B
b0 F
b1 C
b0 G
b0 D
b0 H
b0 E
#2014630372829324
b0 F
b10 B
b0 G
b1 C
b0 H
#2014630372833333
b0 D
b0 E
#2014630384102594
b0 C
#2014630385834476
b100 B
b1 F
#2014630554733073
b100 B
b1 F
b0 C
b0 G
b0 H
#2014630554737082
b0 D
b0 E
#2014631029651264
b0 F
b111 B
b0 G
b0 C
b0 H
#2014631029655273
b0 D
b0 E
#2014631043456716
b1 F
b100 B
#2014631210084472
b111 B
b0 F
#2014631211680339
b111 B
b0 F
b0 C
b0 G
b0 D
b0 H
b0 E
#2014631219609923
b1 F
b100 B
b0 G
b0 C
b0 H
#2014631219613932
b0 D
b0 E
#2014631401619466
b1 F
b100 B
b0 G
b0 C
b0 H
b0 D
b0 E
#2014634327317931
b0 F
b111 B
b0 G
b0 C
b0 H
#2014634327321940
b0 D
b0 E
#2014634339090034
b1 F
b100 B
#2014634509316406
b100 B
b1 F
b0 C
b0 G
b0 D
b0 H
b0 E
#2014635379765196
b0 F
b111 B
b0 G
b0 C
b0 H
#2014635379769206
b0 D
b0 E
#2014635394316147
b1 F
b100 B
#2014635561750326
b100 B
b1 F
b0 C
b0 G
b0 D
b0 H
b0 E
#2014636041323465
b0 F
b111 B
b0 G
b0 C
b0 H
#2014636041327474
b0 D
b0 E
#2014636051218071
b1 F
b100 B
#2014636223347331
b100 B
b1 F
b0 C
b0 G
b0 D
b0 H
b0 E
#2014636301776264
b0 F
b111 B
b0 G
b0 C
b0 H
#2014636301780273
b0 D
b0 E
#2014636307397607
b1 F
b100 B
#2014636483780273
b100 B
b1 F
b0 C
b0 G
b0 D
b0 H
b0 E
#2014637424526264
b0 F
b111 B
b0 G
b0 C
b0 H
#2014637424530273
b0 D
b0 E
